[
    {
        "id": "a0049ba1.cf1468",
        "type": "tab",
        "label": "Intent Automation",
        "disabled": false,
        "info": ""
    },
    {
        "id": "538e665a.09c478",
        "type": "tab",
        "label": "Hue API",
        "disabled": false,
        "info": ""
    },
    {
        "id": "8379c87b.e36ca8",
        "type": "tab",
        "label": "Generate Slots",
        "disabled": false,
        "info": ""
    },
    {
        "id": "69d1875.26c2478",
        "type": "tab",
        "label": "Hue Dashboard",
        "disabled": false,
        "info": ""
    },
    {
        "id": "90e9517a.6c2c4",
        "type": "subflow",
        "name": "Hue Scenes to Slots",
        "info": "",
        "category": "voice",
        "in": [
            {
                "x": 40,
                "y": 40,
                "wires": [
                    {
                        "id": "9edd5619.2a3088"
                    }
                ]
            }
        ],
        "out": [
            {
                "x": 940,
                "y": 40,
                "wires": [
                    {
                        "id": "4bd6b078.0fc2a",
                        "port": 0
                    }
                ]
            }
        ],
        "env": [],
        "color": "#DDAA99"
    },
    {
        "id": "a8c05f0e.9f961",
        "type": "subflow",
        "name": "Hue Entities to Slots",
        "info": "",
        "category": "voice",
        "in": [
            {
                "x": 40,
                "y": 40,
                "wires": [
                    {
                        "id": "87db7fb1.ebaa5"
                    }
                ]
            }
        ],
        "out": [
            {
                "x": 860,
                "y": 40,
                "wires": [
                    {
                        "id": "87ecfe74.8c3c",
                        "port": 0
                    }
                ]
            }
        ],
        "env": [
            {
                "name": "ENTITY",
                "type": "str",
                "value": "lights"
            }
        ],
        "color": "#DDAA99"
    },
    {
        "id": "c26a084e.584758",
        "type": "subflow",
        "name": "Hue Event",
        "info": "",
        "category": "hue",
        "in": [
            {
                "x": 40,
                "y": 40,
                "wires": [
                    {
                        "id": "6d69769b.3533c8"
                    }
                ]
            }
        ],
        "out": [
            {
                "x": 500,
                "y": 40,
                "wires": [
                    {
                        "id": "e3d7b3bd.3d088",
                        "port": 0
                    }
                ]
            }
        ],
        "env": [
            {
                "name": "TYPE",
                "type": "str",
                "value": "lights",
                "ui": {
                    "type": "input",
                    "opts": {
                        "types": [
                            "str",
                            "env"
                        ]
                    }
                }
            }
        ],
        "color": "#DDAA99"
    },
    {
        "id": "651f40ce.72caf",
        "type": "subflow",
        "name": "Get Hue Entities",
        "info": "",
        "category": "hue",
        "in": [
            {
                "x": 40,
                "y": 40,
                "wires": [
                    {
                        "id": "ba119fab.6731d"
                    }
                ]
            }
        ],
        "out": [
            {
                "x": 960,
                "y": 40,
                "wires": [
                    {
                        "id": "75fe40db.efcfc",
                        "port": 0
                    }
                ]
            }
        ],
        "env": [],
        "color": "#DDAA99"
    },
    {
        "id": "b23efdd4.1b956",
        "type": "subflow",
        "name": "Register Hue Token",
        "info": "",
        "category": "hue",
        "in": [
            {
                "x": 40,
                "y": 100,
                "wires": [
                    {
                        "id": "4936ac99.391af4"
                    }
                ]
            }
        ],
        "out": [
            {
                "x": 1160,
                "y": 100,
                "wires": [
                    {
                        "id": "e430cbc4.b29eb8",
                        "port": 0
                    },
                    {
                        "id": "72fe20de.0ed84",
                        "port": 0
                    },
                    {
                        "id": "113dccdd.6d5973",
                        "port": 1
                    },
                    {
                        "id": "47d8e94c.cb46b8",
                        "port": 1
                    }
                ]
            }
        ],
        "env": [
            {
                "name": "ADDRESS",
                "type": "str",
                "value": "192.168.86.21"
            }
        ],
        "color": "#DDAA99",
        "outputLabels": [
            "token",
            "error"
        ]
    },
    {
        "id": "bf71896.87ec678",
        "type": "group",
        "z": "a0049ba1.cf1468",
        "name": "Forward voice2json intent messages as corresponding device command messages",
        "style": {
            "fill": "#000000",
            "fill-opacity": "0.1",
            "label": true,
            "color": "#000000"
        },
        "nodes": [
            "7e9f0c5a.d34544",
            "bca34535.3c8718",
            "c25ab001.0ad6",
            "ff9d0f02.c9ede",
            "767bea98.021aa4",
            "eb270cc5.98346",
            "8521de31.75cc",
            "2afdf08a.cb2cc",
            "6c72f387.f0a2bc",
            "d12ff52f.707af8",
            "7a65b58e.f775bc",
            "4a789dc3.1a9914",
            "8bc1fb6c.601448",
            "53942158.deda9",
            "4b482d26.efee24"
        ],
        "x": 14,
        "y": 19
    },
    {
        "id": "fe242dc6.e7f8f",
        "type": "group",
        "z": "8379c87b.e36ca8",
        "name": "Write voice2json slots files by querying device metadata",
        "style": {
            "fill": "#000000",
            "fill-opacity": "0.1",
            "label": true,
            "color": "#000000"
        },
        "nodes": [
            "5b9d0d39.500a34",
            "630f9fac.581e1",
            "a88df24d.f25d9",
            "c6fc561b.35bfc8",
            "8958a5ce.c91478",
            "d089a13e.8a609",
            "fe16ca40.df0b08",
            "c81df419.1e67c8",
            "b646ddbf.805ed"
        ],
        "x": 14,
        "y": 19
    },
    {
        "id": "54a43b1b.130214",
        "type": "group",
        "z": "538e665a.09c478",
        "name": "Initialize bridge id to API token mapping",
        "style": {
            "fill": "#000000",
            "fill-opacity": "0.1",
            "label": true,
            "color": "#000000"
        },
        "nodes": [
            "6ea6d33a.23731c",
            "59213ec6.ee76b",
            "eb1d5518.781d58",
            "7890ad29.904614"
        ],
        "x": 14,
        "y": 239,
        "w": 432,
        "h": 142
    },
    {
        "id": "1fd0f21b.30870e",
        "type": "group",
        "z": "538e665a.09c478",
        "name": "Activate Hue API when a bridge is discovered",
        "style": {
            "fill": "#000000",
            "fill-opacity": "0.1",
            "label": true,
            "color": "#000000"
        },
        "nodes": [
            "d13d3bbe.a6f9d8",
            "ab687494.d60158",
            "5ef61f8b.b8658",
            "c844be3e.65b5b",
            "9650bac8.070548",
            "f433a011.a05d7",
            "e8094977.30e8a8",
            "6a573a4c.d3b7f4",
            "e3feb99b.1b7b58",
            "44d6298d.cb60d8"
        ],
        "x": 14,
        "y": 19,
        "w": 1292,
        "h": 202
    },
    {
        "id": "8c4502e1.1b4d4",
        "type": "group",
        "z": "538e665a.09c478",
        "name": "Poll Hue bridges",
        "style": {
            "fill": "#000000",
            "fill-opacity": "0.1",
            "label": true,
            "color": "#000000"
        },
        "nodes": [
            "3b3f66d1.39d83a",
            "34cf2ae4.d6c246",
            "e7951e54.81227",
            "b2df347a.fcbc48",
            "80f56e82.a67a9",
            "52fd7a35.30b564",
            "b0c55ba9.072be8",
            "38e32223.e262fe",
            "bb4a4ebd.93cb5",
            "383ab9fa.74fb86",
            "b06302ee.9b93c",
            "5b188109.b977b",
            "cb8fcb18.3ad138",
            "efb756a8.ab80d8",
            "c4660dae.092ca",
            "579245f4.52f08c",
            "6f2fbc68.ab4e54",
            "cdc69a37.903948",
            "64e1ee66.c6454"
        ],
        "x": 14,
        "y": 399,
        "w": 1352,
        "h": 242
    },
    {
        "id": "1a1319da.85af26",
        "type": "group",
        "z": "69d1875.26c2478",
        "name": "Bridge 001788FFFEA3E3D5 group 2 scenes",
        "style": {
            "fill": "#000000",
            "fill-opacity": "0.1",
            "label": true,
            "color": "#000000"
        },
        "nodes": [
            "b94b594b.d161e8",
            "76bc89ac.5274e8",
            "1ea9a9a3.9d9396",
            "ee39583.5e436a8",
            "5e162905.9e3b18"
        ],
        "x": 14,
        "y": 119,
        "w": 952,
        "h": 82
    },
    {
        "id": "16605054.7d76c",
        "type": "group",
        "z": "69d1875.26c2478",
        "name": "Bridge 001788FFFEA3E3D5 group 2 toggle",
        "style": {
            "fill": "#000000",
            "fill-opacity": "0.1",
            "label": true,
            "color": "#000000"
        },
        "nodes": [
            "8ea3373f.7df128",
            "b4c37ef6.7d332",
            "b72770e2.6c778",
            "b0503d90.b40d4",
            "56e8c57.f53383c"
        ],
        "x": 14,
        "y": 19,
        "w": 1032,
        "h": 82
    },
    {
        "id": "dfeb6262.2a0bd",
        "type": "group",
        "z": "b23efdd4.1b956",
        "name": "Send request to register API token to Hue Bridge -- must be invoked within thirty seconds of pressing button",
        "style": {
            "fill": "#000000",
            "fill-opacity": "0.1",
            "label": true,
            "color": "#000000"
        },
        "nodes": [
            "48477bb6.7fb5a4",
            "4936ac99.391af4",
            "113dccdd.6d5973",
            "e430cbc4.b29eb8",
            "72fe20de.0ed84",
            "47d8e94c.cb46b8",
            "44c3dead.c89f8"
        ],
        "x": 74,
        "y": 19
    },
    {
        "id": "dd32b842.28e388",
        "type": "group",
        "z": "538e665a.09c478",
        "name": "Click inject after pressing button on Bridge to create an API token",
        "style": {
            "fill": "#000000",
            "fill-opacity": "0.1",
            "label": true,
            "color": "#000000"
        },
        "nodes": [
            "eb38fe30.6f48a",
            "3e7905ff.f2480a",
            "7a88a6b9.714e38"
        ],
        "x": 14,
        "y": 659,
        "w": 532,
        "h": 82
    },
    {
        "id": "7b2d4d18.0e4e14",
        "type": "mqtt-broker",
        "name": "",
        "broker": "localhost",
        "port": "1883",
        "tls": "",
        "clientid": "",
        "usetls": false,
        "compatmode": false,
        "keepalive": "60",
        "cleansession": true,
        "birthTopic": "",
        "birthQos": "2",
        "birthRetain": "true",
        "birthPayload": "",
        "closeTopic": "",
        "closeQos": "2",
        "closeRetain": "true",
        "closePayload": "",
        "willTopic": "",
        "willQos": "2",
        "willRetain": "true",
        "willPayload": ""
    },
    {
        "id": "2666d84b.b13078",
        "type": "semaphore-config",
        "name": "hueBridges",
        "capacity": "1"
    },
    {
        "id": "4cdc2cf0.8525d4",
        "type": "ui_base",
        "theme": {
            "name": "theme-light",
            "lightTheme": {
                "default": "#0094CE",
                "baseColor": "#0094CE",
                "baseFont": "-apple-system,BlinkMacSystemFont,Segoe UI,Roboto,Oxygen-Sans,Ubuntu,Cantarell,Helvetica Neue,sans-serif",
                "edited": true,
                "reset": false
            },
            "darkTheme": {
                "default": "#097479",
                "baseColor": "#097479",
                "baseFont": "-apple-system,BlinkMacSystemFont,Segoe UI,Roboto,Oxygen-Sans,Ubuntu,Cantarell,Helvetica Neue,sans-serif",
                "edited": false
            },
            "customTheme": {
                "name": "Untitled Theme 1",
                "default": "#4B7930",
                "baseColor": "#4B7930",
                "baseFont": "-apple-system,BlinkMacSystemFont,Segoe UI,Roboto,Oxygen-Sans,Ubuntu,Cantarell,Helvetica Neue,sans-serif"
            },
            "themeState": {
                "base-color": {
                    "default": "#0094CE",
                    "value": "#0094CE",
                    "edited": false
                },
                "page-titlebar-backgroundColor": {
                    "value": "#0094CE",
                    "edited": false
                },
                "page-backgroundColor": {
                    "value": "#fafafa",
                    "edited": false
                },
                "page-sidebar-backgroundColor": {
                    "value": "#ffffff",
                    "edited": false
                },
                "group-textColor": {
                    "value": "#1bbfff",
                    "edited": false
                },
                "group-borderColor": {
                    "value": "#ffffff",
                    "edited": false
                },
                "group-backgroundColor": {
                    "value": "#ffffff",
                    "edited": false
                },
                "widget-textColor": {
                    "value": "#111111",
                    "edited": false
                },
                "widget-backgroundColor": {
                    "value": "#0094ce",
                    "edited": false
                },
                "widget-borderColor": {
                    "value": "#ffffff",
                    "edited": false
                },
                "base-font": {
                    "value": "-apple-system,BlinkMacSystemFont,Segoe UI,Roboto,Oxygen-Sans,Ubuntu,Cantarell,Helvetica Neue,sans-serif"
                }
            },
            "angularTheme": {
                "primary": "indigo",
                "accents": "blue",
                "warn": "red",
                "background": "grey"
            }
        },
        "site": {
            "name": "Node-RED Dashboard",
            "hideToolbar": "false",
            "allowSwipe": "false",
            "lockMenu": "false",
            "allowTempTheme": "true",
            "dateFormat": "DD/MM/YYYY",
            "sizes": {
                "sx": 48,
                "sy": 48,
                "gx": 6,
                "gy": 6,
                "cx": 6,
                "cy": 6,
                "px": 0,
                "py": 0
            }
        }
    },
    {
        "id": "c9776fef.4977",
        "type": "ui_tab",
        "name": "Hue",
        "icon": "mi-lightbulb_outline",
        "order": 1,
        "disabled": false,
        "hidden": false
    },
    {
        "id": "16c2bc99.d51c73",
        "type": "ui_group",
        "name": "Groups",
        "tab": "c9776fef.4977",
        "order": 1,
        "disp": true,
        "width": "6",
        "collapse": false
    },
    {
        "id": "61b983d5.492aec",
        "type": "ui_group",
        "name": "Scenes",
        "tab": "c9776fef.4977",
        "order": 2,
        "disp": true,
        "width": "6",
        "collapse": false
    },
    {
        "id": "81cf2f92.e368c",
        "type": "ui_link",
        "name": "Editor",
        "link": "..",
        "icon": "open_in_browser",
        "target": "newtab",
        "order": 3
    },
    {
        "id": "7c1f8b51.c8b274",
        "type": "split",
        "z": "90e9517a.6c2c4",
        "name": "",
        "splt": "\\n",
        "spltType": "str",
        "arraySplt": 1,
        "arraySpltType": "len",
        "stream": false,
        "addname": "id",
        "x": 390,
        "y": 40,
        "wires": [
            [
                "97adee85.b517"
            ]
        ]
    },
    {
        "id": "eea612d9.f9069",
        "type": "join",
        "z": "90e9517a.6c2c4",
        "name": "",
        "mode": "reduce",
        "build": "string",
        "property": "payload",
        "propertyType": "msg",
        "key": "topic",
        "joiner": "\\n",
        "joinerType": "str",
        "accumulate": false,
        "timeout": "",
        "count": "",
        "reduceRight": false,
        "reduceExp": "$A & payload & '\\n'",
        "reduceInit": "",
        "reduceInitType": "str",
        "reduceFixup": "",
        "x": 690,
        "y": 40,
        "wires": [
            [
                "4bd6b078.0fc2a"
            ]
        ]
    },
    {
        "id": "9edd5619.2a3088",
        "type": "change",
        "z": "90e9517a.6c2c4",
        "name": "",
        "rules": [
            {
                "t": "move",
                "p": "payload.scenes",
                "pt": "msg",
                "to": "payload",
                "tot": "msg"
            }
        ],
        "action": "",
        "property": "",
        "from": "",
        "to": "",
        "reg": false,
        "x": 200,
        "y": 40,
        "wires": [
            [
                "7c1f8b51.c8b274"
            ]
        ]
    },
    {
        "id": "4bd6b078.0fc2a",
        "type": "change",
        "z": "90e9517a.6c2c4",
        "name": "",
        "rules": [
            {
                "t": "set",
                "p": "topic",
                "pt": "msg",
                "to": "scenes",
                "tot": "str"
            }
        ],
        "action": "",
        "property": "",
        "from": "",
        "to": "",
        "reg": false,
        "x": 830,
        "y": 40,
        "wires": [
            []
        ]
    },
    {
        "id": "97adee85.b517",
        "type": "change",
        "z": "90e9517a.6c2c4",
        "name": "",
        "rules": [
            {
                "t": "set",
                "p": "payload",
                "pt": "msg",
                "to": "'(' & payload.name.$trim().$lowercase() & '):(' & id & ' ' & payload.group & ')'",
                "tot": "jsonata"
            }
        ],
        "action": "",
        "property": "",
        "from": "",
        "to": "",
        "reg": false,
        "x": 540,
        "y": 40,
        "wires": [
            [
                "eea612d9.f9069"
            ]
        ]
    },
    {
        "id": "655f5972.e373d8",
        "type": "split",
        "z": "a8c05f0e.9f961",
        "name": "",
        "splt": "\\n",
        "spltType": "str",
        "arraySplt": 1,
        "arraySpltType": "len",
        "stream": false,
        "addname": "id",
        "x": 310,
        "y": 40,
        "wires": [
            [
                "c6d2378e.049aa8"
            ]
        ]
    },
    {
        "id": "3a3dcb92.63cc34",
        "type": "join",
        "z": "a8c05f0e.9f961",
        "name": "",
        "mode": "reduce",
        "build": "string",
        "property": "payload",
        "propertyType": "msg",
        "key": "topic",
        "joiner": "\\n",
        "joinerType": "str",
        "accumulate": false,
        "timeout": "",
        "count": "",
        "reduceRight": false,
        "reduceExp": "$A & payload & '\\n'",
        "reduceInit": "",
        "reduceInitType": "str",
        "reduceFixup": "",
        "x": 610,
        "y": 40,
        "wires": [
            [
                "87ecfe74.8c3c"
            ]
        ]
    },
    {
        "id": "87db7fb1.ebaa5",
        "type": "change",
        "z": "a8c05f0e.9f961",
        "name": "",
        "rules": [
            {
                "t": "set",
                "p": "payload",
                "pt": "msg",
                "to": "payload.$lookup($env('ENTITY'))",
                "tot": "jsonata"
            }
        ],
        "action": "",
        "property": "",
        "from": "",
        "to": "",
        "reg": false,
        "x": 160,
        "y": 40,
        "wires": [
            [
                "655f5972.e373d8"
            ]
        ]
    },
    {
        "id": "87ecfe74.8c3c",
        "type": "change",
        "z": "a8c05f0e.9f961",
        "name": "",
        "rules": [
            {
                "t": "set",
                "p": "topic",
                "pt": "msg",
                "to": "ENTITY",
                "tot": "env"
            }
        ],
        "action": "",
        "property": "",
        "from": "",
        "to": "",
        "reg": false,
        "x": 750,
        "y": 40,
        "wires": [
            []
        ]
    },
    {
        "id": "c6d2378e.049aa8",
        "type": "change",
        "z": "a8c05f0e.9f961",
        "name": "",
        "rules": [
            {
                "t": "set",
                "p": "payload",
                "pt": "msg",
                "to": "'(' & payload.name.$lowercase() & '):' & id\t",
                "tot": "jsonata"
            }
        ],
        "action": "",
        "property": "",
        "from": "",
        "to": "",
        "reg": false,
        "x": 460,
        "y": 40,
        "wires": [
            [
                "3a3dcb92.63cc34"
            ]
        ]
    },
    {
        "id": "7e9f0c5a.d34544",
        "type": "mqtt in",
        "z": "a0049ba1.cf1468",
        "g": "bf71896.87ec678",
        "name": "",
        "topic": "voice2json/intent/+",
        "qos": "2",
        "datatype": "json",
        "broker": "7b2d4d18.0e4e14",
        "x": 130,
        "y": 280,
        "wires": [
            [
                "767bea98.021aa4"
            ]
        ]
    },
    {
        "id": "bca34535.3c8718",
        "type": "switch",
        "z": "a0049ba1.cf1468",
        "g": "bf71896.87ec678",
        "name": "intent",
        "property": "topic",
        "propertyType": "msg",
        "rules": [
            {
                "t": "eq",
                "v": "AllLightsOff",
                "vt": "str"
            },
            {
                "t": "eq",
                "v": "ActivateScene",
                "vt": "str"
            },
            {
                "t": "eq",
                "v": "StartColorLoop",
                "vt": "str"
            },
            {
                "t": "eq",
                "v": "ChangeGroupState",
                "vt": "str"
            },
            {
                "t": "eq",
                "v": "ChangeGroupBrightness",
                "vt": "str"
            },
            {
                "t": "eq",
                "v": "ChangeLightState",
                "vt": "str"
            },
            {
                "t": "eq",
                "v": "ChangeLightBrightness",
                "vt": "str"
            },
            {
                "t": "eq",
                "v": "ChangeOutletState",
                "vt": "str"
            },
            {
                "t": "else"
            }
        ],
        "checkall": "false",
        "repair": false,
        "outputs": 9,
        "x": 510,
        "y": 200,
        "wires": [
            [
                "8521de31.75cc"
            ],
            [
                "6c72f387.f0a2bc"
            ],
            [
                "d12ff52f.707af8"
            ],
            [
                "7a65b58e.f775bc"
            ],
            [
                "4a789dc3.1a9914"
            ],
            [
                "8bc1fb6c.601448"
            ],
            [
                "53942158.deda9"
            ],
            [
                "4b482d26.efee24"
            ],
            [
                "eb270cc5.98346"
            ]
        ]
    },
    {
        "id": "c25ab001.0ad6",
        "type": "debug",
        "z": "a0049ba1.cf1468",
        "g": "bf71896.87ec678",
        "name": "INTENT",
        "active": false,
        "tosidebar": true,
        "console": false,
        "tostatus": true,
        "complete": "true",
        "targetType": "full",
        "statusVal": "topic",
        "statusType": "msg",
        "x": 520,
        "y": 360,
        "wires": []
    },
    {
        "id": "ff9d0f02.c9ede",
        "type": "ui_toast",
        "z": "a0049ba1.cf1468",
        "g": "bf71896.87ec678",
        "position": "dialog",
        "displayTime": "3",
        "highlight": "",
        "sendall": true,
        "outputs": 1,
        "ok": "OK",
        "cancel": "",
        "raw": false,
        "topic": "",
        "name": "",
        "x": 870,
        "y": 380,
        "wires": [
            []
        ]
    },
    {
        "id": "767bea98.021aa4",
        "type": "change",
        "z": "a0049ba1.cf1468",
        "g": "bf71896.87ec678",
        "name": "",
        "rules": [
            {
                "t": "set",
                "p": "topic",
                "pt": "msg",
                "to": "topic.$split('/')[2]",
                "tot": "jsonata"
            }
        ],
        "action": "",
        "property": "",
        "from": "",
        "to": "",
        "reg": false,
        "x": 310,
        "y": 280,
        "wires": [
            [
                "bca34535.3c8718",
                "c25ab001.0ad6"
            ]
        ]
    },
    {
        "id": "eb270cc5.98346",
        "type": "json",
        "z": "a0049ba1.cf1468",
        "g": "bf71896.87ec678",
        "name": "",
        "property": "payload",
        "action": "str",
        "pretty": true,
        "x": 730,
        "y": 380,
        "wires": [
            [
                "ff9d0f02.c9ede"
            ]
        ]
    },
    {
        "id": "8521de31.75cc",
        "type": "change",
        "z": "a0049ba1.cf1468",
        "g": "bf71896.87ec678",
        "name": "",
        "rules": [
            {
                "t": "set",
                "p": "payload",
                "pt": "msg",
                "to": "{\"on\":false}",
                "tot": "json"
            },
            {
                "t": "set",
                "p": "topic",
                "pt": "msg",
                "to": "hue/put/groups/0",
                "tot": "str"
            }
        ],
        "action": "",
        "property": "",
        "from": "",
        "to": "",
        "reg": false,
        "x": 760,
        "y": 60,
        "wires": [
            [
                "2afdf08a.cb2cc"
            ]
        ]
    },
    {
        "id": "2afdf08a.cb2cc",
        "type": "mqtt out",
        "z": "a0049ba1.cf1468",
        "g": "bf71896.87ec678",
        "name": "",
        "topic": "",
        "qos": "2",
        "retain": "false",
        "broker": "7b2d4d18.0e4e14",
        "x": 1030,
        "y": 200,
        "wires": []
    },
    {
        "id": "6c72f387.f0a2bc",
        "type": "function",
        "z": "a0049ba1.cf1468",
        "g": "bf71896.87ec678",
        "name": "parseScene",
        "func": "let parts = msg.payload[0].split(' ')\n\nmsg.topic = 'hue/put/groups/' + parts[1] + '/action'\n\nmsg.payload = {\n    scene: parts[0]\n}\n\nreturn msg",
        "outputs": 1,
        "noerr": 0,
        "initialize": "",
        "finalize": "",
        "x": 770,
        "y": 100,
        "wires": [
            [
                "2afdf08a.cb2cc"
            ]
        ]
    },
    {
        "id": "d12ff52f.707af8",
        "type": "change",
        "z": "a0049ba1.cf1468",
        "g": "bf71896.87ec678",
        "name": "",
        "rules": [
            {
                "t": "set",
                "p": "topic",
                "pt": "msg",
                "to": "'hue/put/groups/' & payload[0] & '/action'",
                "tot": "jsonata"
            },
            {
                "t": "set",
                "p": "payload",
                "pt": "msg",
                "to": "{\"on\":true,\"effect\":\"colorloop\"}",
                "tot": "json"
            }
        ],
        "action": "",
        "property": "",
        "from": "",
        "to": "",
        "reg": false,
        "x": 760,
        "y": 140,
        "wires": [
            [
                "2afdf08a.cb2cc"
            ]
        ]
    },
    {
        "id": "7a65b58e.f775bc",
        "type": "change",
        "z": "a0049ba1.cf1468",
        "g": "bf71896.87ec678",
        "name": "",
        "rules": [
            {
                "t": "set",
                "p": "topic",
                "pt": "msg",
                "to": "'hue/put/groups/' & payload[1] & '/action'",
                "tot": "jsonata"
            },
            {
                "t": "set",
                "p": "payload",
                "pt": "msg",
                "to": "{\"on\":payload[0] = 'on' ? true : false}",
                "tot": "jsonata"
            }
        ],
        "action": "",
        "property": "",
        "from": "",
        "to": "",
        "reg": false,
        "x": 760,
        "y": 180,
        "wires": [
            [
                "2afdf08a.cb2cc"
            ]
        ]
    },
    {
        "id": "4a789dc3.1a9914",
        "type": "change",
        "z": "a0049ba1.cf1468",
        "g": "bf71896.87ec678",
        "name": "",
        "rules": [
            {
                "t": "set",
                "p": "topic",
                "pt": "msg",
                "to": "'hue/put/groups/' & payload[0] & '/action'",
                "tot": "jsonata"
            },
            {
                "t": "set",
                "p": "payload",
                "pt": "msg",
                "to": "{\"on\":true,\"bri\":$round(payload[1] / 100 * 254)}",
                "tot": "jsonata"
            }
        ],
        "action": "",
        "property": "",
        "from": "",
        "to": "",
        "reg": false,
        "x": 760,
        "y": 220,
        "wires": [
            [
                "2afdf08a.cb2cc"
            ]
        ]
    },
    {
        "id": "8bc1fb6c.601448",
        "type": "change",
        "z": "a0049ba1.cf1468",
        "g": "bf71896.87ec678",
        "name": "",
        "rules": [
            {
                "t": "set",
                "p": "topic",
                "pt": "msg",
                "to": "'hue/put/lights/' & payload[1] & '/state'",
                "tot": "jsonata"
            },
            {
                "t": "set",
                "p": "payload",
                "pt": "msg",
                "to": "{\"on\":payload[0] = 'on' ? true : false}",
                "tot": "jsonata"
            }
        ],
        "action": "",
        "property": "",
        "from": "",
        "to": "",
        "reg": false,
        "x": 760,
        "y": 260,
        "wires": [
            [
                "2afdf08a.cb2cc"
            ]
        ]
    },
    {
        "id": "53942158.deda9",
        "type": "change",
        "z": "a0049ba1.cf1468",
        "g": "bf71896.87ec678",
        "name": "",
        "rules": [
            {
                "t": "set",
                "p": "topic",
                "pt": "msg",
                "to": "'hue/put/lights/' & payload[0] & '/state'",
                "tot": "jsonata"
            },
            {
                "t": "set",
                "p": "payload",
                "pt": "msg",
                "to": "{\"on\":true,\"bri\":$round(payload[1] / 100 * 254)}",
                "tot": "jsonata"
            }
        ],
        "action": "",
        "property": "",
        "from": "",
        "to": "",
        "reg": false,
        "x": 760,
        "y": 300,
        "wires": [
            [
                "2afdf08a.cb2cc"
            ]
        ]
    },
    {
        "id": "4b482d26.efee24",
        "type": "change",
        "z": "a0049ba1.cf1468",
        "g": "bf71896.87ec678",
        "name": "",
        "rules": [
            {
                "t": "set",
                "p": "topic",
                "pt": "msg",
                "to": "'zwave/set/' & payload[1]",
                "tot": "jsonata"
            },
            {
                "t": "set",
                "p": "payload",
                "pt": "msg",
                "to": "payload[0] = 'on' ? true : false",
                "tot": "jsonata"
            }
        ],
        "action": "",
        "property": "",
        "from": "",
        "to": "",
        "reg": false,
        "x": 760,
        "y": 340,
        "wires": [
            [
                "2afdf08a.cb2cc"
            ]
        ]
    },
    {
        "id": "5b9d0d39.500a34",
        "type": "inject",
        "z": "8379c87b.e36ca8",
        "g": "fe242dc6.e7f8f",
        "name": "get metadata",
        "props": [
            {
                "p": "payload"
            }
        ],
        "repeat": "",
        "crontab": "",
        "once": false,
        "onceDelay": 0.1,
        "topic": "",
        "payload": "",
        "payloadType": "str",
        "x": 130,
        "y": 100,
        "wires": [
            [
                "c81df419.1e67c8"
            ]
        ]
    },
    {
        "id": "630f9fac.581e1",
        "type": "subflow:a8c05f0e.9f961",
        "z": "8379c87b.e36ca8",
        "g": "fe242dc6.e7f8f",
        "name": "Hue Lights to Slots",
        "env": [],
        "x": 690,
        "y": 60,
        "wires": [
            [
                "fe16ca40.df0b08"
            ]
        ]
    },
    {
        "id": "a88df24d.f25d9",
        "type": "debug",
        "z": "8379c87b.e36ca8",
        "g": "fe242dc6.e7f8f",
        "name": "",
        "active": true,
        "tosidebar": true,
        "console": false,
        "tostatus": false,
        "complete": "true",
        "targetType": "full",
        "statusVal": "",
        "statusType": "auto",
        "x": 1190,
        "y": 100,
        "wires": []
    },
    {
        "id": "c6fc561b.35bfc8",
        "type": "subflow:a8c05f0e.9f961",
        "z": "8379c87b.e36ca8",
        "g": "fe242dc6.e7f8f",
        "name": "Hue Groups to Slots",
        "env": [
            {
                "name": "ENTITY",
                "value": "groups",
                "type": "str"
            }
        ],
        "x": 680,
        "y": 100,
        "wires": [
            [
                "fe16ca40.df0b08"
            ]
        ]
    },
    {
        "id": "8958a5ce.c91478",
        "type": "file",
        "z": "8379c87b.e36ca8",
        "g": "fe242dc6.e7f8f",
        "name": "",
        "filename": "",
        "appendNewline": false,
        "createDir": true,
        "overwriteFile": "true",
        "encoding": "none",
        "x": 1070,
        "y": 100,
        "wires": [
            [
                "a88df24d.f25d9"
            ]
        ]
    },
    {
        "id": "d089a13e.8a609",
        "type": "subflow:90e9517a.6c2c4",
        "z": "8379c87b.e36ca8",
        "g": "fe242dc6.e7f8f",
        "name": "",
        "x": 680,
        "y": 140,
        "wires": [
            [
                "fe16ca40.df0b08"
            ]
        ]
    },
    {
        "id": "fe16ca40.df0b08",
        "type": "change",
        "z": "8379c87b.e36ca8",
        "g": "fe242dc6.e7f8f",
        "name": "",
        "rules": [
            {
                "t": "set",
                "p": "filename",
                "pt": "msg",
                "to": "$env('HOME') & '/voice2json/slots/' & topic",
                "tot": "jsonata"
            }
        ],
        "action": "",
        "property": "",
        "from": "",
        "to": "",
        "reg": false,
        "x": 910,
        "y": 100,
        "wires": [
            [
                "8958a5ce.c91478"
            ]
        ]
    },
    {
        "id": "6ea6d33a.23731c",
        "type": "change",
        "z": "538e665a.09c478",
        "g": "54a43b1b.130214",
        "name": "",
        "rules": [
            {
                "t": "set",
                "p": "hueTokens",
                "pt": "global",
                "to": "{\"001788FFFEA3E3D5\":\"nj7spl5C90llkY4BS3h7vf4Op8FeaU9hAoMPuoh1\"}",
                "tot": "json"
            }
        ],
        "action": "",
        "property": "",
        "from": "",
        "to": "",
        "reg": false,
        "x": 320,
        "y": 280,
        "wires": [
            []
        ]
    },
    {
        "id": "59213ec6.ee76b",
        "type": "inject",
        "z": "538e665a.09c478",
        "g": "54a43b1b.130214",
        "name": "",
        "props": [
            {
                "p": "payload"
            }
        ],
        "repeat": "",
        "crontab": "",
        "once": true,
        "onceDelay": 0.1,
        "topic": "",
        "payload": "",
        "payloadType": "date",
        "x": 130,
        "y": 280,
        "wires": [
            [
                "6ea6d33a.23731c"
            ]
        ]
    },
    {
        "id": "d13d3bbe.a6f9d8",
        "type": "mqtt in",
        "z": "538e665a.09c478",
        "g": "1fd0f21b.30870e",
        "name": "",
        "topic": "ssdp/search",
        "qos": "2",
        "datatype": "json",
        "broker": "7b2d4d18.0e4e14",
        "x": 110,
        "y": 60,
        "wires": [
            [
                "ab687494.d60158"
            ]
        ]
    },
    {
        "id": "ab687494.d60158",
        "type": "switch",
        "z": "538e665a.09c478",
        "g": "1fd0f21b.30870e",
        "name": "hue-bridgeid",
        "property": "payload",
        "propertyType": "msg",
        "rules": [
            {
                "t": "hask",
                "v": "hue-bridgeid",
                "vt": "str"
            }
        ],
        "checkall": "false",
        "repair": false,
        "outputs": 1,
        "x": 290,
        "y": 100,
        "wires": [
            [
                "5ef61f8b.b8658"
            ]
        ]
    },
    {
        "id": "5ef61f8b.b8658",
        "type": "change",
        "z": "538e665a.09c478",
        "g": "1fd0f21b.30870e",
        "name": "",
        "rules": [
            {
                "t": "set",
                "p": "topic",
                "pt": "msg",
                "to": "'hue/bridge/' & payload.$lookup('hue-bridgeid')",
                "tot": "jsonata"
            },
            {
                "t": "set",
                "p": "payload",
                "pt": "msg",
                "to": "payload.LOCATION.$match(/http:\\/\\/([0-9]+[.:]){4}[0-9]+/).match & '/api/'",
                "tot": "jsonata"
            }
        ],
        "action": "",
        "property": "",
        "from": "",
        "to": "",
        "reg": false,
        "x": 460,
        "y": 100,
        "wires": [
            [
                "9650bac8.070548"
            ]
        ]
    },
    {
        "id": "9650bac8.070548",
        "type": "rbe",
        "z": "538e665a.09c478",
        "g": "1fd0f21b.30870e",
        "name": "",
        "func": "rbe",
        "gap": "",
        "start": "",
        "inout": "out",
        "property": "payload",
        "x": 610,
        "y": 100,
        "wires": [
            [
                "e8094977.30e8a8"
            ]
        ]
    },
    {
        "id": "c844be3e.65b5b",
        "type": "mqtt in",
        "z": "538e665a.09c478",
        "g": "1fd0f21b.30870e",
        "name": "",
        "topic": "ssdp/notify",
        "qos": "2",
        "datatype": "json",
        "broker": "7b2d4d18.0e4e14",
        "x": 120,
        "y": 140,
        "wires": [
            [
                "ab687494.d60158"
            ]
        ]
    },
    {
        "id": "e8094977.30e8a8",
        "type": "semaphore-take",
        "z": "538e665a.09c478",
        "g": "1fd0f21b.30870e",
        "config": "2666d84b.b13078",
        "name": "",
        "x": 760,
        "y": 100,
        "wires": [
            [
                "6a573a4c.d3b7f4"
            ]
        ]
    },
    {
        "id": "6a573a4c.d3b7f4",
        "type": "function",
        "z": "538e665a.09c478",
        "g": "1fd0f21b.30870e",
        "name": "updateGlobalContext",
        "func": "let bridges = global.get('hueBridges') || {}\nbridges[msg.topic.split('/')[2]] = msg.payload\nglobal.set('hueBridges', bridges)\nreturn msg",
        "outputs": 1,
        "noerr": 0,
        "initialize": "",
        "finalize": "",
        "x": 960,
        "y": 100,
        "wires": [
            [
                "e3feb99b.1b7b58"
            ]
        ]
    },
    {
        "id": "44d6298d.cb60d8",
        "type": "catch",
        "z": "538e665a.09c478",
        "g": "1fd0f21b.30870e",
        "name": "",
        "scope": [
            "6a573a4c.d3b7f4"
        ],
        "uncaught": false,
        "x": 1010,
        "y": 140,
        "wires": [
            [
                "e3feb99b.1b7b58"
            ]
        ]
    },
    {
        "id": "e3feb99b.1b7b58",
        "type": "semaphore-leave",
        "z": "538e665a.09c478",
        "g": "1fd0f21b.30870e",
        "config": "2666d84b.b13078",
        "name": "",
        "x": 1170,
        "y": 120,
        "wires": [
            [
                "f433a011.a05d7"
            ]
        ]
    },
    {
        "id": "f433a011.a05d7",
        "type": "mqtt out",
        "z": "538e665a.09c478",
        "g": "1fd0f21b.30870e",
        "name": "",
        "topic": "",
        "qos": "2",
        "retain": "false",
        "broker": "7b2d4d18.0e4e14",
        "x": 1230,
        "y": 180,
        "wires": []
    },
    {
        "id": "7890ad29.904614",
        "type": "debug",
        "z": "538e665a.09c478",
        "g": "54a43b1b.130214",
        "name": "HUE BRIDGE ID",
        "active": true,
        "tosidebar": true,
        "console": false,
        "tostatus": true,
        "complete": "true",
        "targetType": "full",
        "statusVal": "topic.$split('/')[2]",
        "statusType": "jsonata",
        "x": 290,
        "y": 340,
        "wires": []
    },
    {
        "id": "eb1d5518.781d58",
        "type": "mqtt in",
        "z": "538e665a.09c478",
        "g": "54a43b1b.130214",
        "name": "",
        "topic": "hue/bridge/+",
        "qos": "2",
        "datatype": "utf8",
        "broker": "7b2d4d18.0e4e14",
        "x": 110,
        "y": 340,
        "wires": [
            [
                "7890ad29.904614"
            ]
        ]
    },
    {
        "id": "3b3f66d1.39d83a",
        "type": "inject",
        "z": "538e665a.09c478",
        "g": "8c4502e1.1b4d4",
        "name": "",
        "props": [
            {
                "p": "payload"
            }
        ],
        "repeat": "1",
        "crontab": "",
        "once": true,
        "onceDelay": "1.1",
        "topic": "",
        "payload": "",
        "payloadType": "date",
        "x": 130,
        "y": 500,
        "wires": [
            [
                "64e1ee66.c6454"
            ]
        ]
    },
    {
        "id": "ba119fab.6731d",
        "type": "semaphore-take",
        "z": "651f40ce.72caf",
        "config": "2666d84b.b13078",
        "name": "",
        "x": 160,
        "y": 40,
        "wires": [
            [
                "254f52e1.ad392e"
            ]
        ]
    },
    {
        "id": "66d3d53d.a7df9c",
        "type": "semaphore-leave",
        "z": "651f40ce.72caf",
        "config": "2666d84b.b13078",
        "name": "",
        "x": 530,
        "y": 40,
        "wires": [
            [
                "9366c605.cc92e8"
            ]
        ]
    },
    {
        "id": "254f52e1.ad392e",
        "type": "change",
        "z": "651f40ce.72caf",
        "name": "",
        "rules": [
            {
                "t": "set",
                "p": "payload",
                "pt": "msg",
                "to": "hueBridges",
                "tot": "global"
            }
        ],
        "action": "",
        "property": "",
        "from": "",
        "to": "",
        "reg": false,
        "x": 340,
        "y": 40,
        "wires": [
            [
                "66d3d53d.a7df9c"
            ]
        ]
    },
    {
        "id": "9366c605.cc92e8",
        "type": "split",
        "z": "651f40ce.72caf",
        "name": "",
        "splt": "\\n",
        "spltType": "str",
        "arraySplt": 1,
        "arraySpltType": "len",
        "stream": false,
        "addname": "bridge",
        "x": 690,
        "y": 40,
        "wires": [
            [
                "75fe40db.efcfc"
            ]
        ]
    },
    {
        "id": "75fe40db.efcfc",
        "type": "change",
        "z": "651f40ce.72caf",
        "name": "",
        "rules": [
            {
                "t": "set",
                "p": "url",
                "pt": "msg",
                "to": "payload & $lookup($globalContext('hueTokens'), bridge)",
                "tot": "jsonata"
            },
            {
                "t": "set",
                "p": "payload",
                "pt": "msg",
                "to": "",
                "tot": "str"
            },
            {
                "t": "set",
                "p": "method",
                "pt": "msg",
                "to": "GET",
                "tot": "str"
            }
        ],
        "action": "",
        "property": "",
        "from": "",
        "to": "",
        "reg": false,
        "x": 840,
        "y": 40,
        "wires": [
            []
        ]
    },
    {
        "id": "34cf2ae4.d6c246",
        "type": "http request",
        "z": "538e665a.09c478",
        "g": "8c4502e1.1b4d4",
        "name": "",
        "method": "use",
        "ret": "obj",
        "paytoqs": "ignore",
        "url": "",
        "tls": "",
        "persist": false,
        "proxy": "",
        "authType": "",
        "x": 470,
        "y": 520,
        "wires": [
            [
                "e7951e54.81227",
                "b2df347a.fcbc48",
                "80f56e82.a67a9",
                "b06302ee.9b93c",
                "6f2fbc68.ab4e54"
            ]
        ]
    },
    {
        "id": "e7951e54.81227",
        "type": "change",
        "z": "538e665a.09c478",
        "g": "8c4502e1.1b4d4",
        "name": "",
        "rules": [
            {
                "t": "move",
                "p": "payload.lights",
                "pt": "msg",
                "to": "payload",
                "tot": "msg"
            }
        ],
        "action": "",
        "property": "",
        "from": "",
        "to": "",
        "reg": false,
        "x": 710,
        "y": 440,
        "wires": [
            [
                "38e32223.e262fe"
            ]
        ]
    },
    {
        "id": "b2df347a.fcbc48",
        "type": "change",
        "z": "538e665a.09c478",
        "g": "8c4502e1.1b4d4",
        "name": "",
        "rules": [
            {
                "t": "move",
                "p": "payload.groups",
                "pt": "msg",
                "to": "payload",
                "tot": "msg"
            }
        ],
        "action": "",
        "property": "",
        "from": "",
        "to": "",
        "reg": false,
        "x": 720,
        "y": 480,
        "wires": [
            [
                "bb4a4ebd.93cb5"
            ]
        ]
    },
    {
        "id": "80f56e82.a67a9",
        "type": "change",
        "z": "538e665a.09c478",
        "g": "8c4502e1.1b4d4",
        "name": "",
        "rules": [
            {
                "t": "move",
                "p": "payload.sensors",
                "pt": "msg",
                "to": "payload",
                "tot": "msg"
            }
        ],
        "action": "",
        "property": "",
        "from": "",
        "to": "",
        "reg": false,
        "x": 720,
        "y": 520,
        "wires": [
            [
                "383ab9fa.74fb86"
            ]
        ]
    },
    {
        "id": "6d69769b.3533c8",
        "type": "split",
        "z": "c26a084e.584758",
        "name": "",
        "splt": "\\n",
        "spltType": "str",
        "arraySplt": 1,
        "arraySpltType": "len",
        "stream": false,
        "addname": "entity",
        "x": 130,
        "y": 40,
        "wires": [
            [
                "6972d790.c62728"
            ]
        ]
    },
    {
        "id": "6972d790.c62728",
        "type": "change",
        "z": "c26a084e.584758",
        "name": "",
        "rules": [
            {
                "t": "set",
                "p": "topic",
                "pt": "msg",
                "to": "'hue/' & bridge & '/' & $env('TYPE') & '/' & entity",
                "tot": "jsonata"
            }
        ],
        "action": "",
        "property": "",
        "from": "",
        "to": "",
        "reg": false,
        "x": 270,
        "y": 40,
        "wires": [
            [
                "e3d7b3bd.3d088"
            ]
        ]
    },
    {
        "id": "52fd7a35.30b564",
        "type": "mqtt out",
        "z": "538e665a.09c478",
        "g": "8c4502e1.1b4d4",
        "name": "",
        "topic": "",
        "qos": "2",
        "retain": "true",
        "broker": "7b2d4d18.0e4e14",
        "x": 1290,
        "y": 480,
        "wires": []
    },
    {
        "id": "b0c55ba9.072be8",
        "type": "delay",
        "z": "538e665a.09c478",
        "g": "8c4502e1.1b4d4",
        "name": "",
        "pauseType": "rate",
        "timeout": "5",
        "timeoutUnits": "seconds",
        "rate": "10",
        "nbRateUnits": "1",
        "rateUnits": "second",
        "randomFirst": "1",
        "randomLast": "5",
        "randomUnits": "seconds",
        "drop": false,
        "x": 1140,
        "y": 480,
        "wires": [
            [
                "52fd7a35.30b564"
            ]
        ]
    },
    {
        "id": "e3d7b3bd.3d088",
        "type": "rbe",
        "z": "c26a084e.584758",
        "name": "",
        "func": "rbe",
        "gap": "",
        "start": "",
        "inout": "out",
        "property": "payload",
        "x": 410,
        "y": 40,
        "wires": [
            []
        ]
    },
    {
        "id": "38e32223.e262fe",
        "type": "subflow:c26a084e.584758",
        "z": "538e665a.09c478",
        "g": "8c4502e1.1b4d4",
        "name": "Hue Lights",
        "env": [],
        "x": 930,
        "y": 440,
        "wires": [
            [
                "b0c55ba9.072be8"
            ]
        ]
    },
    {
        "id": "bb4a4ebd.93cb5",
        "type": "subflow:c26a084e.584758",
        "z": "538e665a.09c478",
        "g": "8c4502e1.1b4d4",
        "name": "Hue Groups",
        "env": [
            {
                "name": "TYPE",
                "value": "groups",
                "type": "str"
            },
            {
                "name": "ATTRIBUTE",
                "value": "action",
                "type": "str"
            }
        ],
        "x": 930,
        "y": 480,
        "wires": [
            [
                "b0c55ba9.072be8"
            ]
        ]
    },
    {
        "id": "383ab9fa.74fb86",
        "type": "subflow:c26a084e.584758",
        "z": "538e665a.09c478",
        "g": "8c4502e1.1b4d4",
        "name": "Hue Sensors",
        "env": [
            {
                "name": "TYPE",
                "value": "sensors",
                "type": "str"
            },
            {
                "name": "ATTRIBUTE",
                "value": "config",
                "type": "str"
            }
        ],
        "x": 930,
        "y": 520,
        "wires": [
            [
                "b0c55ba9.072be8"
            ]
        ]
    },
    {
        "id": "b06302ee.9b93c",
        "type": "change",
        "z": "538e665a.09c478",
        "g": "8c4502e1.1b4d4",
        "name": "",
        "rules": [
            {
                "t": "move",
                "p": "payload.scenes",
                "pt": "msg",
                "to": "payload",
                "tot": "msg"
            }
        ],
        "action": "",
        "property": "",
        "from": "",
        "to": "",
        "reg": false,
        "x": 720,
        "y": 560,
        "wires": [
            [
                "5b188109.b977b"
            ]
        ]
    },
    {
        "id": "5b188109.b977b",
        "type": "rbe",
        "z": "538e665a.09c478",
        "g": "8c4502e1.1b4d4",
        "name": "",
        "func": "rbe",
        "gap": "",
        "start": "",
        "inout": "out",
        "property": "payload",
        "x": 910,
        "y": 560,
        "wires": [
            [
                "cb8fcb18.3ad138"
            ]
        ]
    },
    {
        "id": "cb8fcb18.3ad138",
        "type": "function",
        "z": "538e665a.09c478",
        "g": "8c4502e1.1b4d4",
        "name": "options",
        "func": "const options = {}\n\nfor (const id in msg.payload) {\n    \n    const scene = msg.payload[id]\n    \n    if (scene.recycle === false && scene.type === \"GroupScene\") {\n        const group = scene.group.toString()\n        const entries = options[group] || []\n        const entry = {}\n        \n        entry[scene.name] = id\n        entries.push(entry)\n        options[group] = entries\n    }\n}\n\nlet results = []\n\nfor (const group in options) {\n    \n    const message = {\n        topic: 'hue/' + msg.bridge + '/scenes/' + group,\n        payload: options[group]\n    }\n    \n    results.push(message)\n}\n\nreturn [results]",
        "outputs": 1,
        "noerr": 0,
        "initialize": "",
        "finalize": "",
        "x": 1040,
        "y": 560,
        "wires": [
            [
                "b0c55ba9.072be8"
            ]
        ]
    },
    {
        "id": "efb756a8.ab80d8",
        "type": "mqtt in",
        "z": "538e665a.09c478",
        "g": "8c4502e1.1b4d4",
        "name": "",
        "topic": "hue/put/#",
        "qos": "2",
        "datatype": "json",
        "broker": "7b2d4d18.0e4e14",
        "x": 140,
        "y": 540,
        "wires": [
            [
                "c4660dae.092ca"
            ]
        ]
    },
    {
        "id": "b94b594b.d161e8",
        "type": "ui_dropdown",
        "z": "69d1875.26c2478",
        "g": "1a1319da.85af26",
        "name": "",
        "label": "Group 8",
        "tooltip": "",
        "place": "Select option",
        "group": "61b983d5.492aec",
        "order": 1,
        "width": 0,
        "height": 0,
        "passthru": false,
        "multiple": false,
        "options": [],
        "payload": "",
        "topic": "hue/put/001788FFFEA3E3D5/groups/8/action",
        "x": 580,
        "y": 160,
        "wires": [
            [
                "ee39583.5e436a8"
            ]
        ]
    },
    {
        "id": "76bc89ac.5274e8",
        "type": "mqtt in",
        "z": "69d1875.26c2478",
        "g": "1a1319da.85af26",
        "name": "",
        "topic": "hue/001788FFFEA3E3D5/scenes/8",
        "qos": "2",
        "datatype": "json",
        "broker": "7b2d4d18.0e4e14",
        "x": 180,
        "y": 160,
        "wires": [
            [
                "1ea9a9a3.9d9396"
            ]
        ]
    },
    {
        "id": "1ea9a9a3.9d9396",
        "type": "change",
        "z": "69d1875.26c2478",
        "g": "1a1319da.85af26",
        "name": "",
        "rules": [
            {
                "t": "move",
                "p": "payload",
                "pt": "msg",
                "to": "options",
                "tot": "msg"
            },
            {
                "t": "delete",
                "p": "topic",
                "pt": "msg"
            }
        ],
        "action": "",
        "property": "",
        "from": "",
        "to": "",
        "reg": false,
        "x": 420,
        "y": 160,
        "wires": [
            [
                "b94b594b.d161e8"
            ]
        ]
    },
    {
        "id": "5e162905.9e3b18",
        "type": "mqtt out",
        "z": "69d1875.26c2478",
        "g": "1a1319da.85af26",
        "name": "",
        "topic": "",
        "qos": "2",
        "retain": "false",
        "broker": "7b2d4d18.0e4e14",
        "x": 890,
        "y": 160,
        "wires": []
    },
    {
        "id": "ee39583.5e436a8",
        "type": "change",
        "z": "69d1875.26c2478",
        "g": "1a1319da.85af26",
        "name": "",
        "rules": [
            {
                "t": "set",
                "p": "payload",
                "pt": "msg",
                "to": "{\"scene\":payload}",
                "tot": "jsonata"
            }
        ],
        "action": "",
        "property": "",
        "from": "",
        "to": "",
        "reg": false,
        "x": 740,
        "y": 160,
        "wires": [
            [
                "5e162905.9e3b18"
            ]
        ]
    },
    {
        "id": "c4660dae.092ca",
        "type": "change",
        "z": "538e665a.09c478",
        "g": "8c4502e1.1b4d4",
        "name": "",
        "rules": [
            {
                "t": "set",
                "p": "url",
                "pt": "msg",
                "to": "(\t    $topic := $match(topic, /hue\\/put\\/([^/]+)\\/(.*)/);\t    $bridge := $topic.groups[0];\t    $uri := $topic.groups[1];\t    $token := $lookup($globalContext('hueTokens'), $bridge);\t    $lookup($globalContext('hueBridges'), $bridge) & $token & '/' & $uri\t)",
                "tot": "jsonata"
            },
            {
                "t": "set",
                "p": "method",
                "pt": "msg",
                "to": "PUT",
                "tot": "str"
            }
        ],
        "action": "",
        "property": "",
        "from": "",
        "to": "",
        "reg": false,
        "x": 300,
        "y": 540,
        "wires": [
            [
                "34cf2ae4.d6c246"
            ]
        ]
    },
    {
        "id": "579245f4.52f08c",
        "type": "debug",
        "z": "538e665a.09c478",
        "g": "8c4502e1.1b4d4",
        "name": "",
        "active": true,
        "tosidebar": true,
        "console": false,
        "tostatus": false,
        "complete": "payload",
        "targetType": "msg",
        "statusVal": "",
        "statusType": "auto",
        "x": 910,
        "y": 600,
        "wires": []
    },
    {
        "id": "6f2fbc68.ab4e54",
        "type": "switch",
        "z": "538e665a.09c478",
        "g": "8c4502e1.1b4d4",
        "name": "",
        "property": "payload",
        "propertyType": "msg",
        "rules": [
            {
                "t": "istype",
                "v": "array",
                "vt": "array"
            }
        ],
        "checkall": "false",
        "repair": false,
        "outputs": 1,
        "x": 650,
        "y": 600,
        "wires": [
            [
                "cdc69a37.903948"
            ]
        ]
    },
    {
        "id": "8ea3373f.7df128",
        "type": "ui_switch",
        "z": "69d1875.26c2478",
        "g": "16605054.7d76c",
        "name": "",
        "label": "Group 8",
        "tooltip": "",
        "group": "16c2bc99.d51c73",
        "order": 1,
        "width": 0,
        "height": 0,
        "passthru": false,
        "decouple": "true",
        "topic": "hue/put/001788FFFEA3E3D5/groups/8/action",
        "style": "",
        "onvalue": "true",
        "onvalueType": "bool",
        "onicon": "",
        "oncolor": "",
        "offvalue": "false",
        "offvalueType": "bool",
        "officon": "",
        "offcolor": "",
        "x": 660,
        "y": 60,
        "wires": [
            [
                "b0503d90.b40d4"
            ]
        ]
    },
    {
        "id": "cdc69a37.903948",
        "type": "switch",
        "z": "538e665a.09c478",
        "g": "8c4502e1.1b4d4",
        "name": "",
        "property": "payload",
        "propertyType": "msg",
        "rules": [
            {
                "t": "hask",
                "v": "error",
                "vt": "str"
            }
        ],
        "checkall": "true",
        "repair": false,
        "outputs": 1,
        "x": 770,
        "y": 600,
        "wires": [
            [
                "579245f4.52f08c"
            ]
        ]
    },
    {
        "id": "b4c37ef6.7d332",
        "type": "mqtt in",
        "z": "69d1875.26c2478",
        "g": "16605054.7d76c",
        "name": "",
        "topic": "hue/001788FFFEA3E3D5/groups/8",
        "qos": "2",
        "datatype": "json",
        "broker": "7b2d4d18.0e4e14",
        "x": 180,
        "y": 60,
        "wires": [
            [
                "b72770e2.6c778"
            ]
        ]
    },
    {
        "id": "b72770e2.6c778",
        "type": "change",
        "z": "69d1875.26c2478",
        "g": "16605054.7d76c",
        "name": "",
        "rules": [
            {
                "t": "move",
                "p": "payload.action.on",
                "pt": "msg",
                "to": "payload",
                "tot": "msg"
            }
        ],
        "action": "",
        "property": "",
        "from": "",
        "to": "",
        "reg": false,
        "x": 460,
        "y": 60,
        "wires": [
            [
                "8ea3373f.7df128"
            ]
        ]
    },
    {
        "id": "b0503d90.b40d4",
        "type": "change",
        "z": "69d1875.26c2478",
        "g": "16605054.7d76c",
        "name": "",
        "rules": [
            {
                "t": "set",
                "p": "payload",
                "pt": "msg",
                "to": "{\"on\":payload}",
                "tot": "jsonata"
            }
        ],
        "action": "",
        "property": "",
        "from": "",
        "to": "",
        "reg": false,
        "x": 820,
        "y": 60,
        "wires": [
            [
                "56e8c57.f53383c"
            ]
        ]
    },
    {
        "id": "56e8c57.f53383c",
        "type": "mqtt out",
        "z": "69d1875.26c2478",
        "g": "16605054.7d76c",
        "name": "",
        "topic": "",
        "qos": "2",
        "retain": "false",
        "broker": "7b2d4d18.0e4e14",
        "x": 970,
        "y": 60,
        "wires": []
    },
    {
        "id": "64e1ee66.c6454",
        "type": "subflow:651f40ce.72caf",
        "z": "538e665a.09c478",
        "g": "8c4502e1.1b4d4",
        "x": 300,
        "y": 500,
        "wires": [
            [
                "34cf2ae4.d6c246"
            ]
        ]
    },
    {
        "id": "c81df419.1e67c8",
        "type": "subflow:651f40ce.72caf",
        "z": "8379c87b.e36ca8",
        "g": "fe242dc6.e7f8f",
        "name": "",
        "env": [],
        "x": 300,
        "y": 100,
        "wires": [
            [
                "b646ddbf.805ed"
            ]
        ]
    },
    {
        "id": "b646ddbf.805ed",
        "type": "http request",
        "z": "8379c87b.e36ca8",
        "g": "fe242dc6.e7f8f",
        "name": "",
        "method": "use",
        "ret": "obj",
        "paytoqs": "ignore",
        "url": "",
        "tls": "",
        "persist": false,
        "proxy": "",
        "authType": "",
        "x": 470,
        "y": 100,
        "wires": [
            [
                "c6fc561b.35bfc8",
                "630f9fac.581e1",
                "d089a13e.8a609"
            ]
        ]
    },
    {
        "id": "48477bb6.7fb5a4",
        "type": "http request",
        "z": "b23efdd4.1b956",
        "g": "dfeb6262.2a0bd",
        "name": "",
        "method": "use",
        "ret": "obj",
        "paytoqs": "ignore",
        "url": "",
        "tls": "",
        "persist": false,
        "proxy": "",
        "authType": "",
        "x": 350,
        "y": 100,
        "wires": [
            [
                "47d8e94c.cb46b8"
            ]
        ]
    },
    {
        "id": "4936ac99.391af4",
        "type": "change",
        "z": "b23efdd4.1b956",
        "g": "dfeb6262.2a0bd",
        "name": "",
        "rules": [
            {
                "t": "set",
                "p": "url",
                "pt": "msg",
                "to": "'http://' & $env('ADDRESS') & '/api'",
                "tot": "jsonata"
            },
            {
                "t": "set",
                "p": "method",
                "pt": "msg",
                "to": "POST",
                "tot": "str"
            },
            {
                "t": "set",
                "p": "payload",
                "pt": "msg",
                "to": "{\"devicetype\":$string(payload)}",
                "tot": "jsonata"
            }
        ],
        "action": "",
        "property": "",
        "from": "",
        "to": "",
        "reg": false,
        "x": 180,
        "y": 100,
        "wires": [
            [
                "48477bb6.7fb5a4"
            ]
        ]
    },
    {
        "id": "113dccdd.6d5973",
        "type": "switch",
        "z": "b23efdd4.1b956",
        "g": "dfeb6262.2a0bd",
        "name": "",
        "property": "payload",
        "propertyType": "msg",
        "rules": [
            {
                "t": "hask",
                "v": "success",
                "vt": "str"
            },
            {
                "t": "else"
            }
        ],
        "checkall": "false",
        "repair": false,
        "outputs": 2,
        "x": 730,
        "y": 80,
        "wires": [
            [
                "e430cbc4.b29eb8"
            ],
            []
        ]
    },
    {
        "id": "e430cbc4.b29eb8",
        "type": "change",
        "z": "b23efdd4.1b956",
        "g": "dfeb6262.2a0bd",
        "name": "",
        "rules": [
            {
                "t": "move",
                "p": "payload.success.username",
                "pt": "msg",
                "to": "payload",
                "tot": "msg"
            }
        ],
        "action": "",
        "property": "",
        "from": "",
        "to": "",
        "reg": false,
        "x": 950,
        "y": 60,
        "wires": [
            []
        ]
    },
    {
        "id": "72fe20de.0ed84",
        "type": "catch",
        "z": "b23efdd4.1b956",
        "g": "dfeb6262.2a0bd",
        "name": "",
        "scope": null,
        "uncaught": true,
        "x": 1020,
        "y": 140,
        "wires": [
            []
        ]
    },
    {
        "id": "47d8e94c.cb46b8",
        "type": "switch",
        "z": "b23efdd4.1b956",
        "g": "dfeb6262.2a0bd",
        "name": "",
        "property": "statusCode",
        "propertyType": "msg",
        "rules": [
            {
                "t": "eq",
                "v": "200",
                "vt": "num"
            },
            {
                "t": "else"
            }
        ],
        "checkall": "false",
        "repair": false,
        "outputs": 2,
        "x": 490,
        "y": 100,
        "wires": [
            [
                "44c3dead.c89f8"
            ],
            []
        ]
    },
    {
        "id": "44c3dead.c89f8",
        "type": "split",
        "z": "b23efdd4.1b956",
        "g": "dfeb6262.2a0bd",
        "name": "",
        "splt": "\\n",
        "spltType": "str",
        "arraySplt": 1,
        "arraySpltType": "len",
        "stream": false,
        "addname": "",
        "x": 610,
        "y": 80,
        "wires": [
            [
                "113dccdd.6d5973"
            ]
        ]
    },
    {
        "id": "eb38fe30.6f48a",
        "type": "subflow:b23efdd4.1b956",
        "z": "538e665a.09c478",
        "g": "dd32b842.28e388",
        "name": "",
        "env": [],
        "x": 290,
        "y": 700,
        "wires": [
            [
                "7a88a6b9.714e38"
            ]
        ]
    },
    {
        "id": "3e7905ff.f2480a",
        "type": "inject",
        "z": "538e665a.09c478",
        "g": "dd32b842.28e388",
        "name": "",
        "props": [
            {
                "p": "payload"
            },
            {
                "p": "topic",
                "vt": "str"
            }
        ],
        "repeat": "",
        "crontab": "",
        "once": false,
        "onceDelay": 0.1,
        "topic": "",
        "payload": "",
        "payloadType": "date",
        "x": 120,
        "y": 700,
        "wires": [
            [
                "eb38fe30.6f48a"
            ]
        ]
    },
    {
        "id": "7a88a6b9.714e38",
        "type": "debug",
        "z": "538e665a.09c478",
        "g": "dd32b842.28e388",
        "name": "",
        "active": true,
        "tosidebar": true,
        "console": false,
        "tostatus": false,
        "complete": "true",
        "targetType": "full",
        "statusVal": "",
        "statusType": "auto",
        "x": 450,
        "y": 700,
        "wires": []
    }
]